^C:\USERS\SEREN\ONEDRIVE\DESKTOP\C++\C6\C6\DEBUG\C6.OBJ
C:\USERS\SEREN\ONEDRIVE\DESKTOP\C++\C6\DEBUG\C6.ILK
C:\USERS\SEREN\ONEDRIVE\DESKTOP\C++\C6\DEBUG\C6.EXE
C:\USERS\SEREN\ONEDRIVE\DESKTOP\C++\C6\DEBUG\C6.PDB
